part_dos.c:62:12:test_block_type	8	static
part_dos.c:89:12:part_test_dos	16	dynamic
part_dos.c:120:13:print_partition_extended	72	dynamic
part_dos.c:184:12:5	48	dynamic
part_dos.c:283:5:part_get_info_dos	16	static
part_dos.c:277:6:part_print_dos	16	static
part_dos.c:289:5:is_valid_dos_buf	8	static
part_dos.c:294:5:write_mbr_partition	24	static
