serial.c:186:12:serial_stub_start	8	static
serial.c:193:12:serial_stub_stop	8	static
serial.c:200:13:serial_stub_putc	8	static
serial.c:207:13:serial_stub_puts	8	static
serial.c:214:12:serial_stub_getc	8	static
serial.c:221:12:serial_stub_tstc	8	static
serial.c:315:30:get_current	8	static
serial.c:32:13:serial_null	0	static
serial.c:139:6:serial_register	0	static
serial.c:235:6:serial_stdio_init	96	static
serial.c:272:5:serial_assign	16	static
serial.c:171:6:serial_initialize	8	static
serial.c:292:6:serial_reinit_all	8	static
serial.c:349:5:serial_init	8	static
serial.c:365:6:serial_setbrg	8	static
serial.c:49:12:on_baudrate	16	static
serial.c:381:5:serial_getc	8	static
serial.c:396:5:serial_tstc	8	static
serial.c:412:6:serial_putc	8	static
serial.c:430:6:serial_puts	8	static
serial.c:447:6:default_serial_puts	16	static
