S02700006578616D706C65732F7374616E64616C6F6E652F68656C6C6F5F776F726C642E737265637C
S3150C100000F8402DE90050A0E10100A0E10160A0E14B
S3150C1000100040A0E36B0000EB0910A0E378009FE50D
S3150C1000202F0000EB240000EB0010A0E16C009FE504
S3150C1000302B0000EB68009FE5290000EB64009FE5A0
S3150C1000400510A0E1260000EB5C709FE5060000EAA7
S3150C100050042196E70410A0E1014084E24C009FE5D0
S3150C100060000052E30720A0011D0000EB050054E12F
S3150C100070F6FFFFDA38009FE5190000EB120000EBD3
S3150C100080000050E3FCFFFF0A0D0000EB24009FE577
S3150C100090130000EB0000A0E3F880BDE8F701100C8C
S3150C1000A01702100C3502100C4202100CF001100C39
S3150C1000B04D02100C5E02100C7702100C60C099E504
S3150C1000C000F09CE560C099E504F09CE560C099E5EC
S3150C1000D008F09CE560C099E50CF09CE560C099E5CC
S3150C1000E010F09CE560C099E514F09CE560C099E5AC
S3150C1000F018F09CE560C099E51CF09CE560C099E58C
S3150C10010020F09CE560C099E524F09CE560C099E56B
S3150C10011028F09CE560C099E52CF09CE560C099E54B
S3150C10012030F09CE560C099E534F09CE560C099E52B
S3150C10013038F09CE560C099E53CF09CE560C099E50B
S3150C10014040F09CE560C099E544F09CE560C099E5EB
S3150C10015048F09CE560C099E54CF09CE560C099E5CB
S3150C10016050F09CE560C099E554F09CE560C099E5AB
S3150C10017058F09CE560C099E55CF09CE560C099E58B
S3150C10018060F09CE560C099E564F09CE560C099E56B
S3150C10019068F09CE560C099E56CF09CE560C099E54B
S3150C1001A070F09CE560C099E574F09CE560C099E52B
S3150C1001B078F09CE560C099E57CF09CE560C099E50B
S3150C1001C080F09CE51EFF2FE118309FE50010A0E390
S3150C1001D014209FE5000000EA0110C3E4020053E16D
S3150C1001E0FCFFFF3A1EFF2FE17A82100C7C82100C5A
S3150C1001F03C4E554C4C3E004578616D706C652065D7
S3150C1002007870656374732041424920766572736900
S3150C1002106F6E2025640A0041637475616C20552D30
S3150C100220426F6F74204142492076657273696F6E06
S3150C1002302025640A0048656C6C6F20576F726C64CD
S3150C1002400A0061726763203D2025640A006172679B
S3150C100250765B25645D203D20222573220A004869B1
S3150C1002607420616E79206B657920746F20657869BE
S30F0C10027074202E2E2E20000A0A0010
S7050C100000DE
