S02A00006578616D706C65732F7374616E64616C6F6E652F736D63393131785F656570726F6D2E73726563D7
S3150C1000001C3090E5030091E71EFF2FE11C3090E5A4
S3150C100010032081E71EFF2FE138402DE90040A0E1B7
S3150C1000200150A0E10400A0E1A410A0E3F3FFFFEB44
S3150C100030000050E3FAFFFFBA0400A0E1A410A0E3FD
S3150C100040032185E3F0FFFFEB0400A0E1A410A0E36D
S3150C100050EAFFFFEB000050E3FAFFFFBA0400A0E141
S3150C100060A810A0E33840BDE8E4FFFFEA70402DE984
S3150C1000700040A0E10150A0E10260A0E10400A0E163
S3150C100080A410A0E3DDFFFFEB000050E3FAFFFFBA6C
S3150C1000900400A0E1A810A0E30620A0E1DAFFFFEB14
S3150C1000A00400A0E1A410A0E3022185E3D6FFFFEB28
S3150C1000B00400A0E1A410A0E3D0FFFFEB000050E376
S3150C1000C0FAFFFFBA7080BDE870402DE90150A0E12F
S3150C1000D0B010A0E30040A0E10260A0E1C7FFFFEB67
S3150C1000E0000050E3050000AAB010A0E30400A0E144
S3150C1000F0C2FFFFEB0010A0E16C009FE5100000EAB8
S3150C100100022185E30400A0E1B010A0E3062082E1F1
S3150C100110BDFFFFEB0D0000EAFB0100EB000050E306
S3150C1001200A00000AF60100EB030050E30700001A60
S3150C100130B010A0E30400A0E1B0FFFFEB0010A0E1AB
S3150C10014028009FE5F60100EB0000E0E37080BDE8A7
S3150C1001500400A0E1B010A0E3A8FFFFEB000050E3F1
S3150C100160ECFFFFBA0000A0E37080BDE8910A100CFA
S3150C100170BF0A100C10402DE90120A0E10010A0E3DD
S3150C1001800040A0E1CFFFFFEB000050E30200001A85
S3150C1001900400A0E1B410A0E398FFFFEB7000EFE6AB
S3150C1001A01080BDE80030A0E10300A0E10120D3E4EB
S3150C1001B0200052E309005213FAFFFF0A1EFF2FE12B
S3150C1001C0F0412DE91A34A0E358D04DE20100A0E11C
S3150C1001D030308DE50B0200EBC70100EB090050E344
S3150C1001E00900000A0910A0E38C069FE5CC0100EB70
S3150C1001F0C10100EB0010A0E180069FE5C80100EBE1
S3150C1002007C069FE5C60100EB7D0100EA74069FE5AE
S3150C100210C10100EB6410A0E314008DE277FFFFEB35
S3150C100220010070E30010A0E17501000A58369FE535
S3150C100230030050E154069F156701001A5010A0E3F5
S3150C10024014008DE26DFFFFEB0030A0E32018A0E147
S3150C1002503C069FE5020000EA010052E16001000A2B
S3150C100260013083E28321A0E100C082E0B02092E14C
S3150C100270000052E3F7FFFF1A560100EA0400A0E152
S3150C1002806410A0E360FFFFEB0A50A0E3010000EA44
S3150C1002900A00A0E3AC0100EB015055E26201003AF2
S3150C1002A00400A0E18410A0E354FFFFEB010010E35F
S3150C1002B0F6FFFF0A14408DE25C10A0E30400A0E1E7
S3150C1002C00020A0E350FFFFEB0400A0E17410A0E3A4
S3150C1002D00120A0E3FA5FA0E34BFFFFEB010000EA5D
S3150C1002E00A00A0E3980100EB015055E25001003AC8
S3150C1002F00400A0E1B010A0E340FFFFEB000050E3B8
S3150C100300F6FFFFBA4D0100EA14408DE28810A0E307
S3150C1003100400A0E139FFFFEB070610E30C00001AEE
S3150C100320390100EA780100EB000050E30800000ADE
S3150C100330730100EB030050E30500001AB010A0E3A4
S3150C1003400400A0E12DFFFFEB0010A0E144059FE592
S3150C100350210100EA0400A0E1B010A0E327FFFFEB97
S3150C100360000050E3EEFFFFBA0400A0E18810A0E3F2
S3150C10037022FFFFEB8810A0E30726C0E30400A0E1E0
S3150C10038021FFFFEB200100EA0040A0E308059FE5E2
S3150C1003900450A0E1600100EB0450C6E75A0100EBD3
S3150C1003A0000050E3FCFFFF0A550100EB7010EFE65E
S3150C1003B0613041E2190053E3201041927110EF960F
S3150C1003C00A0051E30B00000A0400008A030051E3F3
S3150C1003D0FE00000A080051E31400001A0D0000EA92
S3150C1003E05F0051E30B00000A7F0051E30900000A7D
S3150C1003F00D0051E30D00001A88049FE5460100EB31
S3150C10040098049FE566FFFFEB0020D0E5000052E351
S3150C100410DCFFFF0A0C0000EA000054E3DDFFFF0AC4
S3150C1004207C049FE5014044E23B0100EBD9FFFFEA57
S3150C1004301F0051E3D7FFFF9A68049FE50410C6E727
S3150C100440014084E2360100EBD2FFFFEA0130D0E521
S3150C100450000053E30200000A090053E32000531373
S3150C100460D500001A3F3042E2180053E303F19F9770
S3150C100470D10000EAC407100CBC07100CBC07100CFA
S3150C100480BC07100C8C06100C0806100CBC07100CB4
S3150C100490BC07100CBC07100CC407100CBC07100CB6
S3150C1004A0BC07100CBC07100CBC07100C4006100C2B
S3150C1004B0BC07100CBC07100C1C07100CD007100C2A
S3150C1004C0BC07100CBC07100CBC07100CBC07100C8E
S3150C1004D0BC07100CD804100C010080E230FFFFEBA7
S3150C1004E00070D0E5450057E30100000A4D0057E3B4
S3150C1004F00900001A010080E229FFFFEB10108DE2B3
S3150C1005001020A0E30050A0E11B0100EB0040A0E17D
S3150C10051010009DE5000055E10200001A88039FE5C6
S3150C100520FF0000EBA60000EA1DFFFFEB10108DE29A
S3150C1005301020A0E30080A0E10F0100EB0050A0E119
S3150C10054010009DE5000058E1F3FFFF0A14FFFFEBC6
S3150C1005500030D0E5000053E3EFFFFF1A450057E3D8
S3150C1005607440EFE61E00001A0410A0E10520A0E16D
S3150C10057038039FE5EA0000EB14008DE20212A0E3AB
S3150C1005800420A0E1CFFEFFEB000050E37DFFFF1A25
S3150C10059014008DE20512A0E30420A0E1C9FEFFEBC6
S3150C1005A0000050E377FFFF1A14008DE2B410A0E39D
S3150C1005B07520EFE694FEFFEB14008DE20312A0E318
S3150C1005C00420A0E1BFFEFFEB000050E36DFFFF1A05
S3150C1005D014008DE20112A0E30420A0E1B9FEFFEB9A
S3150C1005E068FFFFEA0410A0E10520A0E1C0029FE518
S3150C1005F0CB0000EB14008DE20410A0E10520A0E165
S3150C10060081FEFFEB5FFFFFEA0040A0E3A4029FE52B
S3150C100610C10000EB7410EFE614008DE2D4FEFFEB74
S3150C1006200410A0E10020A0E1014084E288029FE5BD
S3150C100630BB0000EB070054E3F5FFFF1A51FFFFEA6E
S3150C1006405050A0E30040A0E30510A0E114008DE289
S3150C1006506AFEFFEB013004E2014084E2000053E332
S3150C1006607440EFE60020A0E150029FE50510A0E1D2
S3150C1006702030A0030A30A013045085E2A80000EB2A
S3150C1006801A0054E3EFFFFF1A3EFFFFEA0110A0E336
S3150C10069014008DE2B6FEFFEB0210A0E30040A0E1C1
S3150C1006A014008DE2B2FEFFEB0310A0E30050A0E1A4
S3150C1006B014008DE2AEFEFFEB0008A0E10410A0E3DF
S3150C1006C0057480E114008DE2A9FEFFEB0510A0E382
S3150C1006D00080A0E114008DE2047087E1A4FEFFEB0C
S3150C1006E00610A0E30040A0E114008DE2A0FEFFEB83
S3150C1006F00310A0E30050A0E1082C87E114008DE252
S3150C10070059FEFFEB14008DE20210A0E3052484E1E0
S3150C10071055FEFFEBA8019FE52A0000EAA4019FE510
S3150C10072014508DE27C0000EB0310A0E30500A0E151
S3150C10073038FEFFEB0210A0E30040A0E10500A0E19B
S3150C10074034FEFFEB243CA0E17410EFE600308DE58F
S3150C1007507030EFE65004E7E75424E7E704308DE5F4
S3150C10076008008DE55438E7E75C019FE50140A0E3EE
S3150C1007706B0000EB54019FE5670000EB7410EFE67D
S3150C1007800500A0E1014084E279FEFFEB0010A0E128
S3150C1007903C019FE5620000EB060054E3F6FFFF1ADE
S3150C1007A00410A0E10500A0E171FEFFEB0010A0E122
S3150C1007B020019FE55A0000EBF2FEFFEA18019FE5B7
S3150C1007C0550000EB14019FE5530000EBEDFEFFEA1C
S3150C1007D00000A0E3260000EA04019FE5500000EBA0
S3150C1007E0070000EA14408DE28410A0E30400A0E197
S3150C1007F054C08DE501FEFFEB012010E29EFEFF0AB0
S3150C100800ABFEFFEA0100A0E3190000EA74009FE5B5
S3150C100810410000EBC4009FE53F0000EB64009FE530
S3150C1008203D0000EB74609FE5D6FEFFEAB4009FE531
S3150C100830000000EAB0009FE5390000EBB1FEFFEABC
S3150C1008400400A0E10810A0E3A0209FE506FEFFEB34
S3150C1008500400A0E1AC10A0E394209FE5EAFDFFEBA9
S3150C1008600400A0E18810A0E388209FE5E6FDFFEBCD
S3150C100870A4FEFFEA58D08DE2F081BDE8E70A100C11
S3150C100880FF0A100C1E0B100CDC0D100C2143658787
S3150C1008902A0B100C400E100C500B100C720B100C6B
S3150C1008A0A88E100C7B0B100C3B0D100C7F0B100C28
S3150C1008B0CA0C100CF20C100C170D100C200D100C81
S3150C1008C02E0D100C3E0D100C5D0D100C7E0D100C1B
S3150C1008D09D0D100CBE0D100CEC0C100CC40D100C48
S3150C1008E09B0B100CDE0D100CFE0D100C270E100CA5
S3150C1008F00200FFFF7F2850000000077060C099E5CA
S3150C10090000F09CE560C099E504F09CE560C099E5A3
S3150C10091008F09CE560C099E50CF09CE560C099E583
S3150C10092010F09CE560C099E514F09CE560C099E563
S3150C10093018F09CE560C099E51CF09CE560C099E543
S3150C10094020F09CE560C099E524F09CE560C099E523
S3150C10095028F09CE560C099E52CF09CE560C099E503
S3150C10096030F09CE560C099E534F09CE560C099E5E3
S3150C10097038F09CE560C099E53CF09CE560C099E5C3
S3150C10098040F09CE560C099E544F09CE560C099E5A3
S3150C10099048F09CE560C099E54CF09CE560C099E583
S3150C1009A050F09CE560C099E554F09CE560C099E563
S3150C1009B058F09CE560C099E55CF09CE560C099E543
S3150C1009C060F09CE560C099E564F09CE560C099E523
S3150C1009D068F09CE560C099E56CF09CE560C099E503
S3150C1009E070F09CE560C099E574F09CE560C099E5E3
S3150C1009F078F09CE560C099E57CF09CE560C099E5C3
S3150C100A0080F09CE51EFF2FE118309FE50010A0E347
S3150C100A1014209FE5000000EA0110C3E4020053E124
S3150C100A20FCFFFF3A1EFF2FE1A88E100C0C8F100C3A
S3150C100A304C414E3839323138004C414E3931313502
S3150C100A40004C414E39313136004C414E393131372B
S3150C100A50004C414E39313138004C414E393231311E
S3150C100A60004C414E39323135004C414E393231360B
S3150C100A70004C414E39323137004C414E39323138F7
S3150C100A80004C414E39323230004C414E39323231F3
S3150C100A9000656570726F6D5F636D643A2062757375
S3150C100AA07920617420737461727420284532505FFA
S3150C100AB0434D44203D20307825303878290A00657E
S3150C100AC06570726F6D5F636D643A2074696D656FD6
S3150C100AD0757420284532505F434D44203D203078A4
S3150C100AE025303878290A004578706563747320416F
S3150C100AF042492076657273696F6E2025640A00412F
S3150C100B00637475616C20552D426F6F742041424988
S3150C100B102076657273696F6E20256C750A004361B9
S3150C100B206E27742072756E0A0A00736D6339313133
S3150C100B30783A20496E76616C696420636869702016
S3150C100B40656E6469616E2030782530386C780A00D1
S3150C100B50696E69743A2074696D656F7574202845D1
S3150C100B6032505F434D44203D20307825303878295B
S3150C100B700A00656570726F6D3E20000820080045EE
S3150C100B8052524F523A20496E76616C6964207772D4
S3150C100B906974652075736167650A004D41432F456D
S3150C100BA04550524F4D20436F6D6D616E64733A0A0A
S3150C100BB02050203A205072696E7420746865204D4E
S3150C100BC04143206164647265737365730A20442013
S3150C100BD03A2044756D702074686520454550524F07
S3150C100BE04D20636F6E74656E74730A204D203A2017
S3150C100BF044756D7020746865204D414320636F6E8B
S3150C100C0074656E74730A2043203A20436F707920F2
S3150C100C10746865204D41432061646472657373205A
S3150C100C2066726F6D2074686520454550524F4D2085
S3150C100C30746F20746865204D41430A2057203A2062
S3150C100C405772697465206120726567697374657271
S3150C100C5020696E2074686520454550524F4D206FA3
S3150C100C607220696E20746865204D41430A2051200C
S3150C100C703A20517569740A0A536F6D6520636F6D4E
S3150C100C806D616E64732074616B6520617267756D2E
S3150C100C90656E74733A0A2057203C457C4D3E203CB9
S3150C100CA072656769737465723E203C76616C756506
S3150C100CB03E0A20202020453A20454550524F4D20C3
S3150C100CC020204D3A204D41430A0057726974696EC3
S3150C100CD06720454550524F4D207265676973746590
S3150C100CE07220253032782077697468202530327856
S3150C100CF00A0057726974696E67204D4143207265FC
S3150C100D006769737465722025303278207769746838
S3150C100D1020253038780A00454550524F4D3A0A0076
S3150C100D20253032783A203078253032780A00253042
S3150C100D3032783A20307825303878202563004545AE
S3150C100D4050524F4D20636F6E74656E747320636FC3
S3150C100D507069656420746F204D41430A00437572A7
S3150C100D6072656E74204D41432041646472657373D1
S3150C100D7020696E204D41433A20202020200025303A
S3150C100D8032783A253032783A253032783A25303264
S3150C100D90783A253032783A253032780A0043757213
S3150C100DA072656E74204D4143204164647265737391
S3150C100DB020696E20454550524F4D3A202000253063
S3150C100DC032783A004552524F523A20556E6B6E6F2E
S3150C100DD0776E20636F6D6D616E64210A0A00736DF8
S3150C100DE063393131783A20556E6B6E6F776E20639E
S3150C100DF0686970204944202530346C780A00736D6C
S3150C100E0063393131783A2074696D656F7574207752
S3150C100E10616974696E6720666F7220504D20726519
S3150C100E2073746F72650A00736D63393131783A20B9
S3150C100E3072657365742074696D656F75740A00003C
S3150C100E408A210000300A100C15010000390A100C0A
S3150C100E5016010000410A100C17010000490A100C6B
S3150C100E6018010000510A100C11920000590A100CAE
S3150C100E705A110000610A100C6A110000690A100C54
S3150C100E807A110000710A100C8A110000790A100CE4
S3150C100E9020920000810A100C21920000890A100C75
S30D0C100EA0000000000000000028
S7050C1001C01D
