axp209.c:22:5:axp_set_dcdc2	16	static
axp209.c:53:5:axp_set_dcdc3	8	static
axp209.c:69:5:axp_set_aldo2	16	static
axp209.c:93:5:axp_set_aldo3	8	static
axp209.c:114:5:axp_set_aldo4	16	static
axp209.c:143:5:axp_init	16	static
axp209.c:188:5:do_poweroff	8	static
