eth-uclass.c:531:12:eth_pre_remove	8	static
eth-uclass.c:457:12:eth_post_probe	24	static
eth-uclass.c:39:32:eth_get_uclass_priv	16	static
eth-uclass.c:181:12:eth_write_hwaddr	16	static
eth-uclass.c:213:12:on_ethaddr	24	static
eth-uclass.c:437:12:eth_post_bind	8	static
eth-uclass.c:48:6:eth_set_current_to_next	8	static
eth-uclass.c:65:17:eth_get_dev	8	static
eth-uclass.c:81:6:eth_set_dev	8	static
eth-uclass.c:448:12:eth_pre_unbind	8	static
eth-uclass.c:96:17:eth_get_dev_by_name	32	static
eth-uclass.c:132:16:eth_get_ethaddr	8	static
eth-uclass.c:145:5:eth_init_state_only	8	static
eth-uclass.c:161:6:eth_halt_state_only	8	static
eth-uclass.c:174:5:eth_get_dev_index	8	static
eth-uclass.c:241:5:eth_init	24	static
eth-uclass.c:318:5:eth_is_active	8	static
eth-uclass.c:304:6:eth_halt	8	static
eth-uclass.c:329:5:eth_send	16	static
eth-uclass.c:349:5:eth_rx	24	static
eth-uclass.c:385:5:eth_initialize	24	static
