efi_runtime.c:184:34:efi_reset_system	0	static
efi_runtime.c:198:42:efi_get_time	0	static
efi_runtime.c:442:42:efi_unimplemented	0	static
efi_runtime.c:447:42:efi_device_error	0	static
efi_runtime.c:452:42:efi_invalid_parameter	0	static
efi_runtime.c:457:35:efi_update_capsule	0	static
efi_runtime.c:465:35:efi_query_capsule_caps	0	static
efi_runtime.c:474:35:efi_query_variable_info	0	static
efi_runtime.c:87:20:efi_reset_system_boottime	16	static
efi_runtime.c:131:28:efi_get_time_boottime	8	static
efi_runtime.c:193:21:efi_reset_system_init	0	static
efi_runtime.c:279:6:efi_runtime_relocate	64	static
efi_runtime.c:341:28:efi_set_virtual_address_map	56	static
efi_runtime.c:400:14:efi_add_runtime_mmio	40	static
