mmc-uclass.c:36:5:dm_mmc_set_ios	8	static
mmc-uclass.c:45:5:mmc_set_ios	0	static
mmc-uclass.c:50:6:dm_mmc_send_init_stream	8	static
mmc-uclass.c:58:6:mmc_send_init_stream	0	static
mmc-uclass.c:79:5:dm_mmc_get_wp	8	static
mmc-uclass.c:88:5:mmc_getwp	0	static
mmc-uclass.c:93:5:dm_mmc_get_cd	8	static
mmc-uclass.c:102:5:mmc_getcd	0	static
mmc-uclass.c:123:5:mmc_of_parse	16	static
mmc-uclass.c:173:13:mmc_get_mmc_dev	8	static
mmc-uclass.c:14:5:dm_mmc_send_cmd	16	static
mmc-uclass.c:31:5:mmc_send_cmd	0	static
