ns16550.c:95:13:ns16550_writeb	8	static
ns16550.c:110:12:ns16550_readb	0	static
ns16550.c:149:13:NS16550_setbrg	16	static
ns16550.c:339:12:ns16550_serial_pending	8	static
ns16550.c:349:12:ns16550_serial_getc	8	static
ns16550.c:359:12:ns16550_serial_setbrg	16	static
ns16550.c:319:12:ns16550_serial_putc	16	static
ns16550.c:142:5:ns16550_calc_divisor	8	static
ns16550.c:157:6:NS16550_init	16	static
ns16550.c:372:5:ns16550_serial_probe	16	static
ns16550.c:196:6:NS16550_reinit	16	static
ns16550.c:206:6:NS16550_putc	16	static
ns16550.c:223:6:NS16550_getc	8	static
ns16550.c:235:5:NS16550_tstc	8	static
