serial-uclass.c:169:13:_serial_putc	16	static
serial-uclass.c:381:12:serial_post_probe	8	static
serial-uclass.c:436:12:serial_pre_remove	0	static
serial-uclass.c:155:5:serial_init	16	static
serial-uclass.c:164:6:serial_initialize	0	static
serial-uclass.c:250:6:serial_putc	0	static
serial-uclass.c:256:6:serial_puts	16	static
serial-uclass.c:262:5:serial_getc	16	static
serial-uclass.c:270:5:serial_tstc	8	static
serial-uclass.c:278:6:serial_setbrg	8	static
serial-uclass.c:290:6:serial_stdio_init	0	static
