phy-uclass.c:34:5:generic_phy_get_by_index	104	static
phy-uclass.c:93:5:generic_phy_get_by_name	16	static
phy-uclass.c:109:5:generic_phy_init	8	static
phy-uclass.c:116:5:generic_phy_reset	8	static
phy-uclass.c:123:5:generic_phy_exit	8	static
phy-uclass.c:130:5:generic_phy_power_on	8	static
phy-uclass.c:137:5:generic_phy_power_off	8	static
