xyzModem.c:62:1:1	16	static
xyzModem.c:236:1:xyzModem_flush	16	static
xyzModem.c:249:1:xyzModem_get_hdr	24	static
xyzModem.c:409:1:xyzModem_stream_open	32	static
xyzModem.c:487:1:xyzModem_stream_read	40	static
xyzModem.c:605:1:xyzModem_stream_close	16	static
xyzModem.c:617:1:xyzModem_stream_terminate	8	static
xyzModem.c:673:1:xyzModem_error	0	static
