command.c:85:12:find_cmd_tbl	32	static
command.c:119:12:find_cmd	0	static
command.c:126:5:cmd_usage	8	static
command.c:21:5:_do_help	56	dynamic
command.c:146:5:var_complete	8	static
command.c:322:5:cmd_auto_complete	216	static
command.c:413:5:cmd_get_data_size	16	static
command.c:505:20:cmd_process	32	static
command.c:548:5:cmd_process_error	8	static
