dlmalloc.c:581:7:sbrk	16	static
dlmalloc.c:601:6:mem_malloc_init	0	static
dlmalloc.c:2164:5:malloc_trim	16	static
dlmalloc.c:1509:6:free	16	static
dlmalloc.c:2129:6:cfree	0	static
dlmalloc.c:1237:9:malloc	32	static
dlmalloc.c:2062:9:calloc	24	static
dlmalloc.c:1877:9:memalign	24	static
dlmalloc.c:2046:9:pvalloc	0	static
dlmalloc.c:2031:9:valloc	0	static
dlmalloc.c:1647:9:realloc	32	static
dlmalloc.c:2233:8:malloc_usable_size	0	static
dlmalloc.c:2362:5:mallopt	0	static
dlmalloc.c:2387:5:initf_malloc	0	static
