image-android.c:50:5:android_image_get_kernel	24	static
image-android.c:103:5:android_image_check_header	0	static
image-android.c:108:7:android_image_get_end	12	static
image-android.c:124:7:android_image_get_kload	0	static
image-android.c:129:5:android_image_get_ramdisk	16	static
image-android.c:148:5:android_image_get_second	24	static
image-android.c:179:6:android_print_contents	40	static
