sunxi_mmc.c:264:12:sunxi_mmc_core_init	8	static
sunxi_mmc.c:41:12:sunxi_mmc_getcd_gpio	0	static
sunxi_mmc.c:469:12:sunxi_mmc_getcd_legacy	8	static
sunxi_mmc.c:191:12:mmc_update_clk	16	static
sunxi_mmc.c:311:12:3	24	static
sunxi_mmc.c:461:12:sunxi_mmc_send_cmd_legacy	48	static
sunxi_mmc.c:98:12:mmc_set_mod_clk	24	static
sunxi_mmc.c:454:12:sunxi_mmc_set_ios_legacy	16	static
sunxi_mmc.c:488:13:sunxi_mmc_init	24	static
