sunxi.c:455:12:musb_usb_remove	16	static
sunxi.c:336:13:sunxi_musb_post_root_reset_end	0	static
sunxi.c:329:13:sunxi_musb_pre_root_reset_end	0	static
sunxi.c:221:12:sunxi_musb_enable	16	static
sunxi.c:195:20:sunxi_musb_interrupt	0	static
sunxi.c:401:12:musb_usb_probe	64	static
sunxi.c:263:13:sunxi_musb_disable	8	static
sunxi.c:287:12:sunxi_musb_init	16	static
sunxi.c:186:6:dfu_usb_get_reset	0	static
