boot-common.c:24:12:omap_sys_boot_device	0	static
boot-common.c:29:6:save_omap_boot_params	8	static
boot-common.c:186:5:spl_boot_device	0	static
boot-common.c:191:5:spl_boot_mode	0	static
boot-common.c:196:6:spl_board_init	8	static
boot-common.c:219:17:jump_to_image_no_args	8	static
