omap3_spi.c:122:13:omap3_spi_write_chconf	8	static
omap3_spi.c:129:13:omap3_spi_set_enable	8	static
omap3_spi.c:464:6:spi_init	0	static
omap3_spi.c:469:6:spi_free_slave	0	static
omap3_spi.c:476:5:spi_claim_bus	16	static
omap3_spi.c:490:6:spi_release_bus	0	static
omap3_spi.c:497:19:spi_setup_slave	24	static
omap3_spi.c:574:5:spi_xfer	40	static
