smbios.c:234:12:smbios_write_type127	16	static
smbios.c:221:12:smbios_write_type32	16	static
smbios.c:59:12:smbios_string_table_len	16	static
smbios.c:28:12:smbios_add_string	24	static
smbios.c:199:12:smbios_write_type4	24	static
smbios.c:147:12:smbios_write_type3	24	static
smbios.c:129:12:smbios_write_type2	16	static
smbios.c:73:12:smbios_write_type0	24	static
smbios.c:108:12:smbios_write_type1	24	static
smbios.c:257:7:write_smbios_table	40	static
