interrupts.c:54:13:show_efi_loaded_images	0	static
interrupts.c:29:5:interrupt_init	0	static
interrupts.c:39:6:enable_interrupts	0	static
interrupts.c:43:5:disable_interrupts	0	static
interrupts.c:48:6:bad_mode	8	static
interrupts.c:83:6:show_regs	160	static
interrupts.c:133:6:do_undefined_instruction	8	static
interrupts.c:143:6:do_software_interrupt	8	static
interrupts.c:153:6:do_prefetch_abort	8	static
interrupts.c:163:6:do_data_abort	8	static
interrupts.c:173:6:do_not_used	8	static
interrupts.c:183:6:do_fiq	8	static
interrupts.c:193:6:do_irq	8	static
