f_fastboot.c:218:28:fastboot_start_ep	16	static
f_fastboot.c:194:13:fastboot_unbind	0	static
f_fastboot.c:289:12:fastboot_add	16	static
f_fastboot.c:199:13:fastboot_disable	8	static
f_fastboot.c:237:12:fastboot_set_alt	16	static
f_fastboot.c:140:13:fastboot_complete	0	static
f_fastboot.c:348:21:rx_bytes_expected	16	static
f_fastboot.c:338:12:fastboot_tx_write_str	24	static
f_fastboot.c:419:13:rx_handler_command	96	static
f_fastboot.c:343:13:compl_do_reset	0	static
f_fastboot.c:408:13:do_exit_on_complete	0	static
f_fastboot.c:413:13:do_bootm_on_complete	8	static
f_fastboot.c:372:13:rx_handler_dl_image	88	static
f_fastboot.c:148:12:fastboot_bind	24	static
