utils.c:12:13:do_cancel_out	24	static
utils.c:145:6:cancel_out	16	static
utils.c:164:13:omap_die_id	0	static
utils.c:169:6:omap_die_id_serial	56	static
utils.c:184:6:omap_die_id_get_board_serial	8	static
utils.c:202:6:omap_die_id_usbethaddr	32	static
utils.c:228:6:omap_die_id_display	32	static
