sunxi_display.c:411:13:sunxi_is_composite	0	static
sunxi_display.c:469:13:sunxi_composer_mode_set	8	static
sunxi_display.c:508:13:sunxi_composer_enable	0	static
sunxi_display.c:613:13:sunxi_ctfb_mode_to_display_timing	0	static
sunxi_display.c:76:12:6	16	static
sunxi_display.c:188:12:sunxi_hdmi_edid_get_block	40	static
sunxi_display.c:1025:7:board_get_usable_ram_top	0	static
sunxi_display.c:1078:7:video_hw_init	896	static
sunxi_display.c:1245:5:sunxi_simplefb_setup	32	static
