musb_host.c:89:13:musb_h_tx_flush_fifo	24	static
musb_host.c:113:13:musb_h_ep0_flush_fifo	24	static
musb_host.c:188:1:musb_start_urb	72	static
musb_host.c:339:13:musb_advance_schedule	32	static
musb_host.c:964:13:musb_h_ep0_irq	32	static
musb_host.c:1102:6:musb_host_tx	48	static
musb_host.c:1431:6:musb_host_rx	32	static
musb_host.c:1912:5:musb_urb_enqueue	72	static
musb_host.c:2182:5:musb_urb_dequeue	24	static
