timer-uclass.c:66:12:timer_post_probe	8	static
timer-uclass.c:43:12:timer_pre_probe	16	static
timer-uclass.c:26:13:timer_get_count	8	static
timer-uclass.c:36:23:timer_get_rate	0	static
timer-uclass.c:76:5:timer_conv_64	12	static
timer-uclass.c:85:13:dm_timer_init	16	static
