omap_gpmc.c:57:13:omap_nand_hwcontrol	8	static
omap_gpmc.c:85:12:omap_dev_ready	0	static
omap_gpmc.c:177:13:omap_enable_hwecc	20	static
omap_gpmc.c:261:12:omap_calculate_ecc	20	static
omap_gpmc.c:468:13:omap_reverse_list	12	static
omap_gpmc.c:583:12:omap_read_page_bch	64	static
omap_gpmc.c:491:12:omap_correct_data_bch	104	static
omap_gpmc.c:428:13:omap_nand_read_prefetch	32	static
omap_gpmc.c:120:27:omap_correct_data	16	static
omap_gpmc.c:962:5:board_nand_init	24	static
