sha256.c:58:13:sha256_process	136	static
sha256.c:189:6:0	32	static
sha256.c:43:6:sha256_starts	0	static
sha256.c:189:6:sha256_update	0	static
sha256.c:230:6:sha256_finish	24	static
sha256.c:263:6:sha256_csum_wd	136	static
